{
    "app":
    {
        "port": 3000
    },
    "db":
    {
        "db_url": "mongodb://localhost/db_mid",
        "host": "mongodb://localhost",
        "port": 27017,
        "db_name": "db_mid",
        "user": "",
        "password": ""
    }
}